<?xml version="1.0" encoding="utf-8"?>
<!-- Generator: Adobe Illustrator 20.1.0, SVG Export Plug-In . SVG Version: 6.00 Build 0)  -->
<svg version="1.1" id="Слой_1" xmlns="http://www.w3.org/2000/svg" xmlns:xlink="http://www.w3.org/1999/xlink" x="0px" y="0px"
	 viewBox="0 0 23 23" style="enable-background:new 0 0 23 23;" xml:space="preserve">
<style type="text/css">
	.st0{fill:#787878;}
</style>
<title>C8FEAE99-0EAF-40B9-B69C-0D93D34A24C4</title>
<g>
	<polygon class="st0" points="21.6,23 11.5,12.9 1.4,23 0,21.6 10.1,11.5 0.1,1.5 1.5,0.1 11.5,10.1 21.5,0.1 22.9,1.5 12.9,11.5 
		23,21.6 	"/>
</g>
</svg>
